…
This scatter plot shows borrower original Loan amount and their montly income, inorder to find out the loan trend among the monthly income borrowers. As the monthly rises, loan amount is also rising with it. Means, more monthly income you have, more loan amount you can get.

## # A tibble: 52 x 2
##    BorrowerState   mean
##    <fct>          <dbl>
##  1 ""             5412.
##  2 AK             9312.
##  3 AL             7556.
##  4 AR             7697.
##  5 AZ             8200.
##  6 CA             8974.
##  7 CO             8599.
##  8 CT             9130.
##  9 DC            10126.
## 10 DE             8841.
## # ... with 42 more rows
…
